“COMPSCIX 415.2 Homework 3
…
filter(mpg, cyl == 8)

## # A tibble: 70 x 11
##    manufacturer model     displ  year   cyl trans  drv     cty   hwy fl   
##    <chr>        <chr>     <dbl> <int> <int> <chr>  <chr> <int> <int> <chr>
##  1 audi         a6 quatt…   4.2  2008     8 auto(… 4        16    23 p    
##  2 chevrolet    c1500 su…   5.3  2008     8 auto(… r        14    20 r    
##  3 chevrolet    c1500 su…   5.3  2008     8 auto(… r        11    15 e    
##  4 chevrolet    c1500 su…   5.3  2008     8 auto(… r        14    20 r    
##  5 chevrolet    c1500 su…   5.7  1999     8 auto(… r        13    17 r    
##  6 chevrolet    c1500 su…   6    2008     8 auto(… r        12    17 r    
##  7 chevrolet    corvette    5.7  1999     8 manua… r        16    26 p    
##  8 chevrolet    corvette    5.7  1999     8 auto(… r        15    23 p    
##  9 chevrolet    corvette    6.2  2008     8 manua… r        16    26 p    
## 10 chevrolet    corvette    6.2  2008     8 auto(… r        15    25 p    
## # ... with 60 more rows, and 1 more variable: class <chr>

filter(diamonds, carat > 3)

## # A tibble: 32 x 10
##    carat cut     color clarity depth table price     x     y     z
##    <dbl> <ord>   <ord> <ord>   <dbl> <dbl> <int> <dbl> <dbl> <dbl>
##  1  3.01 Premium I     I1       62.7    58  8040  9.1   8.97  5.67
##  2  3.11 Fair    J     I1       65.9    57  9823  9.15  9.02  5.98
##  3  3.01 Premium F     I1       62.2    56  9925  9.24  9.13  5.73
##  4  3.05 Premium E     I1       60.9    58 10453  9.26  9.25  5.66
##  5  3.02 Fair    I     I1       65.2    56 10577  9.11  9.02  5.91
##  6  3.01 Fair    H     I1       56.1    62 10761  9.54  9.38  5.31
##  7  3.65 Fair    H     I1       67.1    53 11668  9.53  9.48  6.38
##  8  3.24 Premium H     I1       62.1    58 12300  9.44  9.4   5.85
##  9  3.22 Ideal   I     I1       62.6    55 12545  9.49  9.42  5.92
## 10  3.5  Ideal   H     I1       62.8    57 12587  9.65  9.59  6.03
## # ... with 22 more rows

5.2.4 Exercises

Q: Find all flights that  1.Had an arrival delay of two or more hours

filter(flights, arr_delay >= 2*60)

## # A tibble: 10,200 x 19
##     year month   day dep_time sched_dep_time dep_delay arr_time
##    <int> <int> <int>    <int>          <int>     <dbl>    <int>
##  1  2013     1     1      811            630       101     1047
##  2  2013     1     1      848           1835       853     1001
##  3  2013     1     1      957            733       144     1056
##  4  2013     1     1     1114            900       134     1447
##  5  2013     1     1     1505           1310       115     1638
##  6  2013     1     1     1525           1340       105     1831
##  7  2013     1     1     1549           1445        64     1912
##  8  2013     1     1     1558           1359       119     1718
##  9  2013     1     1     1732           1630        62     2028
## 10  2013     1     1     1803           1620       103     2008
## # ... with 10,190 more rows, and 12 more variables: sched_arr_time <int>,
## #   arr_delay <dbl>, carrier <chr>, flight <int>, tailnum <chr>,
## #   origin <chr>, dest <chr>, air_time <dbl>, distance <dbl>, hour <dbl>,
## #   minute <dbl>, time_hour <dttm>

2. Flew to Houston (IAH or HOU)

filter(flights, dest == "IAH" | dest == "HOU")

## # A tibble: 9,313 x 19
##     year month   day dep_time sched_dep_time dep_delay arr_time
##    <int> <int> <int>    <int>          <int>     <dbl>    <int>
##  1  2013     1     1      517            515         2      830
##  2  2013     1     1      533            529         4      850
##  3  2013     1     1      623            627        -4      933
##  4  2013     1     1      728            732        -4     1041
##  5  2013     1     1      739            739         0     1104
##  6  2013     1     1      908            908         0     1228
##  7  2013     1     1     1028           1026         2     1350
##  8  2013     1     1     1044           1045        -1     1352
##  9  2013     1     1     1114            900       134     1447
## 10  2013     1     1     1205           1200         5     1503
## # ... with 9,303 more rows, and 12 more variables: sched_arr_time <int>,
## #   arr_delay <dbl>, carrier <chr>, flight <int>, tailnum <chr>,
## #   origin <chr>, dest <chr>, air_time <dbl>, distance <dbl>, hour <dbl>,
## #   minute <dbl>, time_hour <dttm>

3. Were operated by United, American, or Delta

filter(flights, carrier %in% c("AA", "DL", "UA"))

## # A tibble: 139,504 x 19
##     year month   day dep_time sched_dep_time dep_delay arr_time
##    <int> <int> <int>    <int>          <int>     <dbl>    <int>
##  1  2013     1     1      517            515         2      830
##  2  2013     1     1      533            529         4      850
##  3  2013     1     1      542            540         2      923
##  4  2013     1     1      554            600        -6      812
##  5  2013     1     1      554            558        -4      740
##  6  2013     1     1      558            600        -2      753
##  7  2013     1     1      558            600        -2      924
##  8  2013     1     1      558            600        -2      923
##  9  2013     1     1      559            600        -1      941
## 10  2013     1     1      559            600        -1      854
## # ... with 139,494 more rows, and 12 more variables: sched_arr_time <int>,
## #   arr_delay <dbl>, carrier <chr>, flight <int>, tailnum <chr>,
## #   origin <chr>, dest <chr>, air_time <dbl>, distance <dbl>, hour <dbl>,
## #   minute <dbl>, time_hour <dttm>

4. Departed in summer (July, August, and September)

filter(flights, month %in% c(6, 7, 8))

## # A tibble: 86,995 x 19
##     year month   day dep_time sched_dep_time dep_delay arr_time
##    <int> <int> <int>    <int>          <int>     <dbl>    <int>
##  1  2013     6     1        2           2359         3      341
##  2  2013     6     1      451            500        -9      624
##  3  2013     6     1      506            515        -9      715
##  4  2013     6     1      534            545       -11      800
##  5  2013     6     1      538            545        -7      925
##  6  2013     6     1      539            540        -1      832
##  7  2013     6     1      546            600       -14      850
##  8  2013     6     1      551            600        -9      828
##  9  2013     6     1      552            600        -8      647
## 10  2013     6     1      553            600        -7      700
## # ... with 86,985 more rows, and 12 more variables: sched_arr_time <int>,
## #   arr_delay <dbl>, carrier <chr>, flight <int>, tailnum <chr>,
## #   origin <chr>, dest <chr>, air_time <dbl>, distance <dbl>, hour <dbl>,
## #   minute <dbl>, time_hour <dttm>
…
6. Were delayed by at least an hour, but made up over 30 minutes in flight

filter(flights, dep_delay >= 60, arr_delay == (dep_delay - 30))

## # A tibble: 230 x 19
##     year month   day dep_time sched_dep_time dep_delay arr_time
##    <int> <int> <int>    <int>          <int>     <dbl>    <int>
##  1  2013     1     1     1716           1545        91     2140
##  2  2013     1     3     1821           1530       171     2131
##  3  2013     1     3     1923           1815        68     2036
##  4  2013     1     6     2051           1820       151     2206
##  5  2013     1     7     2018           1904        74     2153
##  6  2013     1    16     2111           1845       146     2333
##  7  2013     1    19     1732           1548       104     2039
##  8  2013     1    19     2035           1930        65     2224
##  9  2013     1    21     1641           1530        71     1951
## 10  2013     1    24      742            635        67     1030
## # ... with 220 more rows, and 12 more variables: sched_arr_time <int>,
## #   arr_delay <dbl>, carrier <chr>, flight <int>, tailnum <chr>,
## #   origin <chr>, dest <chr>, air_time <dbl>, distance <dbl>, hour <dbl>,
## #   minute <dbl>, time_hour <dttm>

7. Departed between midnight and 6am (inclusive)

filter(flights, dep_time <= 600)

## # A tibble: 9,344 x 19
##     year month   day dep_time sched_dep_time dep_delay arr_time
##    <int> <int> <int>    <int>          <int>     <dbl>    <int>
##  1  2013     1     1      517            515         2      830
##  2  2013     1     1      533            529         4      850
##  3  2013     1     1      542            540         2      923
##  4  2013     1     1      544            545        -1     1004
##  5  2013     1     1      554            600        -6      812
##  6  2013     1     1      554            558        -4      740
##  7  2013     1     1      555            600        -5      913
##  8  2013     1     1      557            600        -3      709
##  9  2013     1     1      557            600        -3      838
## 10  2013     1     1      558            600        -2      753
## # ... with 9,334 more rows, and 12 more variables: sched_arr_time <int>,
## #   arr_delay <dbl>, carrier <chr>, flight <int>, tailnum <chr>,
## #   origin <chr>, dest <chr>, air_time <dbl>, distance <dbl>, hour <dbl>,
## #   minute <dbl>, time_hour <dttm>

Q: How many flights have a missing dep_time? What other variables are missing? What might these rows represent?

depMissing <- filter(flights, is.na(dep_time))
depMissing

## # A tibble: 8,255 x 19
##     year month   day dep_time sched_dep_time dep_delay arr_time
##    <int> <int> <int>    <int>          <int>     <dbl>    <int>
##  1  2013     1     1       NA           1630        NA       NA
##  2  2013     1     1       NA           1935        NA       NA
##  3  2013     1     1       NA           1500        NA       NA
##  4  2013     1     1       NA            600        NA       NA
##  5  2013     1     2       NA           1540        NA       NA
##  6  2013     1     2       NA           1620        NA       NA
##  7  2013     1     2       NA           1355        NA       NA
##  8  2013     1     2       NA           1420        NA       NA
##  9  2013     1     2       NA           1321        NA       NA
## 10  2013     1     2       NA           1545        NA       NA
## # ... with 8,245 more rows, and 12 more variables: sched_arr_time <int>,
## #   arr_delay <dbl>, carrier <chr>, flight <int>, tailnum <chr>,
## #   origin <chr>, dest <chr>, air_time <dbl>, distance <dbl>, hour <dbl>,
## #   minute <dbl>, time_hour <dttm>

flight data set has 8255 missing dep_time observations. It also has ‘dep_delay’, ‘arr_time’, ‘arr_delay’ and ‘air_time’. These observations/rows represents scheduled flights that where cancelled.

Q: Why is NA ^ 0 not missing? Why is NA | TRUE not missing? Why is FALSE & NA not missing? Can you figure out the general rule? (NA * 0 is a tricky counterexample!)

NOT ANSWERED

5.4.1 Exercises

Q: Brainstorm as many ways as possible to select dep_time, dep_delay, arr_time, and arr_delay from flights.  1

select(flights, dep_time, dep_delay, arr_time)

## # A tibble: 336,776 x 3
##    dep_time dep_delay arr_time
##       <int>     <dbl>    <int>
##  1      517         2      830
##  2      533         4      850
##  3      542         2      923
##  4      544        -1     1004
##  5      554        -6      812
##  6      554        -4      740
##  7      555        -5      913
##  8      557        -3      709
##  9      557        -3      838
## 10      558        -2      753
## # ... with 336,766 more rows

2

select(flights, dep_time, dep_delay:arr_time)

## # A tibble: 336,776 x 3
##    dep_time dep_delay arr_time
##       <int>     <dbl>    <int>
##  1      517         2      830
##  2      533         4      850
##  3      542         2      923
##  4      544        -1     1004
##  5      554        -6      812
##  6      554        -4      740
##  7      555        -5      913
##  8      557        -3      709
##  9      557        -3      838
## 10      558        -2      753
## # ... with 336,766 more rows

3

select(flights, -(year:day),-sched_dep_time,-(sched_arr_time:time_hour))

## # A tibble: 336,776 x 3
##    dep_time dep_delay arr_time
##       <int>     <dbl>    <int>
##  1      517         2      830
##  2      533         4      850
##  3      542         2      923
##  4      544        -1     1004
##  5      554        -6      812
##  6      554        -4      740
##  7      555        -5      913
##  8      557        -3      709
##  9      557        -3      838
## 10      558        -2      753
## # ... with 336,766 more rows

Q: What does the one_of() function do? Why might it be helpful in conjunction with this vector?

One_of function helps select the available columns from the table. Using vector to store all the possible column names to select will help reuseing.

vars <- c("year", "month", "day", "dep_delay", "arr_delay")
select(flights, one_of(vars))

## # A tibble: 336,776 x 5
##     year month   day dep_delay arr_delay
##    <int> <int> <int>     <dbl>     <dbl>
##  1  2013     1     1         2        11
##  2  2013     1     1         4        20
##  3  2013     1     1         2        33
##  4  2013     1     1        -1       -18
##  5  2013     1     1        -6       -25
##  6  2013     1     1        -4        12
##  7  2013     1     1        -5        19
##  8  2013     1     1        -3       -14
##  9  2013     1     1        -3        -8
## 10  2013     1     1        -2         8
## # ... with 336,766 more rows
